…
<img src="README-unnamed-chunk-2-1.png" style="display: block; margin: auto;" />

Both shifts and trends can be independantly suppressed. The baseline can be rephased (triggering at 9 consecutive points):

``` r
runchart(df, shift = FALSE, trend = FALSE, rephase = TRUE)
```

<img src="README-unnamed-chunk-3-1.png" style="display: block; margin: auto;" />

Access the fields behind these plots by setting the output parameter to `df`:

``` r
as_tibble(runchart(df, rephase = TRUE, output = 'df'))
#> # A tibble: 30 × 10
#>          date value  base base_ext base_label base1 base2 base_ext1
#>        <date> <dbl> <dbl>    <dbl>      <dbl> <dbl> <dbl>     <dbl>
#> 1  2017-06-05     0     2        2          2     2    NA         2
#> 2  2017-06-06     1     2        2         NA     2    NA         2
#> 3  2017-06-07     5     2        2         NA     2    NA         2
#> 4  2017-06-08     2     2        2         NA     2    NA         2
#> 5  2017-06-09     3     2        2         NA     2    NA         2
#> 6  2017-06-10     8     2        2         NA     2    NA         2
#> 7  2017-06-11     2     2        2         NA     2    NA         2
#> 8  2017-06-12     2     2        2         NA     2    NA         2
#> 9  2017-06-13     3    NA        2         NA    NA    NA         2
#> 10 2017-06-14     4    NA        2         NA    NA    NA         2
#> # ... with 20 more rows, and 2 more variables: base_ext2 <dbl>,
#> #   shift <dbl>
```
…
